...
----------------------------------------------------------------------
Ran 3 tests in 0.002s

OK
Name               Stmts   Miss Branch BrPart  Cover   Missing
--------------------------------------------------------------
Diplomacy.py          62      2     44      4    94%   30->31, 31, 39->40, 40, 41->36, 58->51
TestDiplomacy.py      21      0      2      1    96%   39->exit
--------------------------------------------------------------
TOTAL                 83      2     46      5    95%
...
----------------------------------------------------------------------
Ran 3 tests in 0.001s

OK
Name               Stmts   Miss Branch BrPart  Cover   Missing
--------------------------------------------------------------
Diplomacy.py          62      2     44      4    94%   30->31, 31, 39->40, 40, 41->36, 58->51
TestDiplomacy.py      21      0      2      1    96%   39->exit
--------------------------------------------------------------
TOTAL                 83      2     46      5    95%
...
----------------------------------------------------------------------
Ran 3 tests in 0.001s

OK
Name               Stmts   Miss Branch BrPart  Cover   Missing
--------------------------------------------------------------
Diplomacy.py          62      2     44      4    94%   30->31, 31, 39->40, 40, 41->36, 58->51
TestDiplomacy.py      21      0      2      1    96%   39->exit
--------------------------------------------------------------
TOTAL                 83      2     46      5    95%
